#FIG 3.2  Produced by xfig version 3.2.5c
Landscape
Center
Metric
A4      
100.00
Single
-2
1200 2
0 32 #c6b797
0 33 #eff8ff
0 34 #dccba6
0 35 #404040
0 36 #808080
0 37 #c0c0c0
0 38 #e0e0e0
0 39 #8e8f8e
0 40 #aaaaaa
0 41 #555555
0 42 #bebebe
0 43 #515151
0 44 #e7e3e7
0 45 #000049
0 46 #797979
0 47 #303430
0 48 #414141
0 49 #c7b696
0 50 #8e8e8e
0 51 #414541
0 52 #8e8e8e
0 53 #cccccc
0 54 #868286
0 55 #c7c3c7
0 56 #444444
0 57 #868686
0 58 #c7c7c7
0 59 #e7e7e7
0 60 #f7f7f7
0 61 #9e9e9e
0 62 #717571
0 63 #effbff
0 64 #666666
0 65 #909090
0 66 #e6e4ce
0 67 #9b9b9b
0 68 #ce9100
0 69 #f762aa
0 70 #7070ff
0 71 #5f5f5f
0 72 #e2e2ee
0 73 #94949a
0 74 #dbdbdb
0 75 #a1a1b7
0 76 #9c0000
0 77 #000000
0 78 #ffffff
0 79 #dd9d93
0 80 #f1ece0
0 81 #c3c3c3
0 82 #e2c8a8
0 83 #e1e1e1
0 84 #d2d2d2
0 85 #ededed
0 86 #da7a1a
0 87 #f1e41a
0 88 #887dc2
0 89 #d6d6d6
0 90 #8c8ca5
0 91 #4a4a4a
0 92 #5a5a5a
0 93 #636363
0 94 #b79b73
0 95 #4193ff
0 96 #bf703b
0 97 #db7700
0 98 #dab800
0 99 #006400
0 100 #5a6b3b
0 101 #d3d3d3
0 102 #8e8ea4
0 103 #f3b95d
0 104 #89996b
0 105 #646464
0 106 #b7e6ff
0 107 #86c0ec
0 108 #bdbdbd
0 109 #d39552
0 110 #98d2fe
0 111 #8c6b6b
0 112 #8c9c6b
0 113 #f76b00
0 114 #5a6b39
0 115 #8c9c6b
0 116 #8c9c7b
0 117 #184a18
0 118 #adadad
0 119 #f7bd5a
0 120 #636b9c
0 121 #de0000
0 122 #adadad
0 123 #f3eed3
0 124 #f5ae5d
0 125 #95ce99
0 126 #b5157d
0 127 #eeeeee
0 128 #848484
0 129 #7b7b7b
0 130 #005a00
0 131 #e77373
0 132 #ffcb31
0 133 #29794a
0 134 #de2821
0 135 #2159c6
0 136 #f8f8f8
0 137 #e6e6e6
0 138 #a5b5c6
0 139 #6b6b94
0 140 #846b6b
0 141 #529c4a
0 142 #d6e7e7
0 143 #526363
0 144 #186b4a
0 145 #21845a
0 146 #dedede
0 147 #526b29
0 148 #949494
0 149 #006300
0 150 #9ca5b5
0 151 #ff9400
0 152 #ff9400
0 153 #00634a
0 154 #7b844a
0 155 #63737b
0 156 #e7bd7b
6 1125 180 1575 585
4 1 0 50 -1 16 8 0.0000 4 105 375 1350 555 pages\001
4 1 0 50 -1 16 8 0.0000 4 105 225 1350 450 des\001
4 1 0 50 -1 16 8 0.0000 4 105 300 1350 315 table\001
-6
1 1 0 1 0 11 51 -1 34 0.000 1 0.0000 4320 1530 450 180 4320 1530 4770 1710
1 1 0 1 0 11 53 -1 36 0.000 1 0.0000 4320 1710 450 180 4320 1710 4770 1890
1 1 0 1 0 0 69 -1 20 0.000 1 0.0000 4365 1575 450 180 4365 1575 4815 1755
1 1 0 1 0 18 55 -1 36 0.000 1 0.0000 4320 1890 450 180 4320 1890 4770 2070
1 1 0 1 0 11 57 -1 36 0.000 1 0.0000 4320 2205 450 180 4320 2205 4770 2385
1 1 0 1 0 0 69 -1 20 0.000 1 0.0000 4365 2250 450 180 4365 2250 4815 2430
2 2 0 1 0 7 51 -1 18 4.000 0 0 7 0 0 5
	 2250 450 3150 450 3150 630 2250 630 2250 450
2 2 0 1 0 7 51 -1 18 4.000 0 0 7 0 0 5
	 2250 810 3150 810 3150 990 2250 990 2250 810
2 2 0 1 0 7 51 -1 18 4.000 0 0 7 0 0 5
	 2250 990 3150 990 3150 1170 2250 1170 2250 990
2 2 0 1 0 7 51 -1 18 4.000 0 0 7 0 0 5
	 2250 1350 3150 1350 3150 1530 2250 1530 2250 1350
2 2 0 1 0 7 51 -1 18 4.000 0 0 7 0 0 5
	 2250 2070 3150 2070 3150 2250 2250 2250 2250 2070
2 2 0 1 0 7 51 -1 18 4.000 0 0 7 0 0 5
	 2250 2970 3150 2970 3150 3150 2250 3150 2250 2970
2 2 0 1 0 0 53 -1 20 4.000 0 0 -1 0 0 5
	 2295 495 3195 495 3195 3195 2295 3195 2295 495
2 2 0 1 0 12 51 -1 36 0.000 0 0 7 0 0 5
	 2250 630 3150 630 3150 810 2250 810 2250 630
2 2 0 1 0 12 51 -1 36 4.000 0 0 7 0 0 5
	 2250 1170 3150 1170 3150 1350 2250 1350 2250 1170
2 2 0 1 0 12 51 -1 36 4.000 0 0 7 0 0 5
	 2250 2610 3150 2610 3150 2790 2250 2790 2250 2610
2 2 0 1 0 7 51 -1 18 4.000 0 0 7 0 0 5
	 2250 1890 3150 1890 3150 2070 2250 2070 2250 1890
2 1 1 1 0 7 50 -1 18 4.000 0 0 -1 0 0 2
	 900 2250 1170 2250
2 1 1 1 0 7 50 -1 18 4.000 0 0 -1 0 0 2
	 900 2430 1170 2430
2 1 1 1 0 7 50 -1 18 4.000 0 0 -1 0 0 2
	 900 2610 1170 2610
2 1 1 1 0 7 50 -1 18 4.000 0 0 -1 0 0 2
	 900 2790 1170 2790
2 2 0 1 0 18 51 -1 36 0.000 0 0 7 0 0 5
	 0 2250 900 2250 900 2430 0 2430 0 2250
2 2 0 1 0 18 51 -1 36 0.000 0 0 7 0 0 5
	 0 2430 900 2430 900 2610 0 2610 0 2430
2 2 0 1 0 18 51 -1 36 0.000 0 0 7 0 0 5
	 0 3150 900 3150 900 3330 0 3330 0 3150
2 1 1 1 0 7 50 -1 18 4.000 0 0 -1 0 0 2
	 900 2970 1170 2970
2 2 0 1 0 18 51 -1 36 0.000 0 0 7 0 0 5
	 1170 2250 1530 2250 1530 2430 1170 2430 1170 2250
2 2 0 1 0 7 51 -1 18 4.000 0 0 7 0 0 5
	 1170 2610 1530 2610 1530 2790 1170 2790 1170 2610
2 2 0 1 0 18 51 -1 36 0.000 0 0 7 0 0 5
	 1170 2430 1530 2430 1530 2610 1170 2610 1170 2430
2 1 1 1 0 7 50 -1 -1 4.000 0 0 7 0 0 2
	 900 3330 1170 3330
2 1 1 1 0 7 50 -1 -1 4.000 0 0 7 0 0 2
	 900 3150 1170 3150
2 2 0 1 0 7 51 -1 18 4.000 0 0 7 0 0 5
	 0 2610 900 2610 900 2790 0 2790 0 2610
2 2 0 1 0 18 51 -1 36 0.000 0 0 7 0 0 5
	 0 2790 900 2790 900 2970 0 2970 0 2790
2 2 0 1 0 7 51 -1 18 4.000 0 0 7 0 0 5
	 0 2970 900 2970 900 3150 0 3150 0 2970
2 2 0 1 0 0 53 -1 20 4.000 0 0 7 0 0 5
	 45 2295 945 2295 945 3375 45 3375 45 2295
2 2 0 1 0 0 53 -1 20 4.000 0 0 -1 0 0 5
	 1215 2295 1575 2295 1575 3375 1215 3375 1215 2295
2 2 0 1 0 18 51 -1 36 0.000 0 0 7 0 0 5
	 1170 2790 1530 2790 1530 2970 1170 2970 1170 2790
2 2 0 1 0 7 51 -1 18 4.000 0 0 7 0 0 5
	 1170 2970 1530 2970 1530 3150 1170 3150 1170 2970
2 2 0 1 0 18 51 -1 36 0.000 0 0 7 0 0 5
	 1170 3150 1530 3150 1530 3330 1170 3330 1170 3150
2 1 1 1 0 7 50 -1 18 4.000 0 0 -1 0 0 2
	 900 630 1170 630
2 1 1 1 0 7 50 -1 18 4.000 0 0 -1 0 0 2
	 900 810 1170 810
2 1 1 1 0 7 50 -1 18 4.000 0 0 -1 0 0 2
	 900 990 1170 990
2 1 1 1 0 7 50 -1 18 4.000 0 0 -1 0 0 2
	 900 1170 1170 1170
2 2 0 1 0 18 51 -1 36 0.000 0 0 7 0 0 5
	 0 630 900 630 900 810 0 810 0 630
2 2 0 1 0 18 51 -1 36 0.000 0 0 7 0 0 5
	 0 810 900 810 900 990 0 990 0 810
2 2 0 1 0 18 51 -1 36 0.000 0 0 7 0 0 5
	 0 1530 900 1530 900 1710 0 1710 0 1530
2 1 1 1 0 7 50 -1 18 4.000 0 0 -1 0 0 2
	 900 1350 1170 1350
2 2 0 1 0 18 51 -1 36 0.000 0 0 7 0 0 5
	 1170 630 1530 630 1530 810 1170 810 1170 630
2 2 0 1 0 7 51 -1 18 4.000 0 0 7 0 0 5
	 1170 990 1530 990 1530 1170 1170 1170 1170 990
2 2 0 1 0 18 51 -1 36 0.000 0 0 7 0 0 5
	 1170 810 1530 810 1530 990 1170 990 1170 810
2 1 1 1 0 7 50 -1 -1 4.000 0 0 7 0 0 2
	 900 1710 1170 1710
2 1 1 1 0 7 50 -1 -1 4.000 0 0 7 0 0 2
	 900 1530 1170 1530
2 2 0 1 0 7 51 -1 18 4.000 0 0 7 0 0 5
	 0 990 900 990 900 1170 0 1170 0 990
2 2 0 1 0 18 51 -1 36 0.000 0 0 7 0 0 5
	 0 1170 900 1170 900 1350 0 1350 0 1170
2 2 0 1 0 7 51 -1 18 4.000 0 0 7 0 0 5
	 0 1350 900 1350 900 1530 0 1530 0 1350
2 2 0 1 0 0 53 -1 20 4.000 0 0 7 0 0 5
	 45 675 945 675 945 1755 45 1755 45 675
2 2 0 1 0 0 53 -1 20 4.000 0 0 -1 0 0 5
	 1215 675 1575 675 1575 1755 1215 1755 1215 675
2 2 0 1 0 18 51 -1 36 0.000 0 0 7 0 0 5
	 1170 1170 1530 1170 1530 1350 1170 1350 1170 1170
2 2 0 1 0 7 51 -1 18 4.000 0 0 7 0 0 5
	 1170 1350 1530 1350 1530 1530 1170 1530 1170 1350
2 2 0 1 0 18 51 -1 36 0.000 0 0 7 0 0 5
	 1170 1530 1530 1530 1530 1710 1170 1710 1170 1530
2 2 0 1 0 12 51 -1 36 4.000 0 0 7 0 0 5
	 2250 2250 3150 2250 3150 2430 2250 2430 2250 2250
2 2 0 1 0 7 51 -1 18 4.000 0 0 7 0 0 5
	 2250 2430 3150 2430 3150 2610 2250 2610 2250 2430
2 2 0 1 0 7 51 -1 18 4.000 0 0 7 0 0 5
	 2250 1710 3150 1710 3150 1890 2250 1890 2250 1710
2 2 0 1 0 12 51 -1 36 4.000 0 0 7 0 0 5
	 2250 1530 3150 1530 3150 1710 2250 1710 2250 1530
2 2 0 1 0 12 51 -1 36 4.000 0 0 7 0 0 5
	 2250 2790 3150 2790 3150 2970 2250 2970 2250 2790
2 1 0 1 0 7 51 -1 -1 0.000 0 0 -1 0 0 2
	 3870 1530 3870 2205
2 1 0 1 0 7 51 -1 -1 0.000 0 0 -1 0 0 2
	 4770 1530 4770 2205
2 2 0 0 0 11 52 -1 36 0.000 0 0 -1 0 0 5
	 3870 1530 4770 1530 4770 1710 3870 1710 3870 1530
2 2 0 0 0 18 54 -1 36 0.000 0 0 -1 0 0 5
	 3870 1710 4770 1710 4770 1890 3870 1890 3870 1710
2 2 0 0 0 11 56 -1 36 0.000 0 0 -1 0 0 5
	 3870 1890 4770 1890 4770 2205 3870 2205 3870 1890
2 2 0 1 0 0 69 -1 20 0.000 0 0 -1 0 0 5
	 4815 1575 3915 1575 3915 2250 4815 2250 4815 1575
2 3 1 1 0 18 52 -1 -1 4.000 0 0 -1 0 0 5
	 1530 1170 2250 1530 2250 1710 1530 1350 1530 1170
2 3 1 1 0 18 52 -1 -1 4.000 0 0 7 0 0 5
	 1530 2790 2250 1530 2250 1710 1530 2970 1530 2790
2 3 1 1 0 18 52 -1 -1 4.000 0 0 7 0 0 5
	 3150 1530 3870 1710 3870 1890 3150 1710 3150 1530
4 1 0 50 -1 16 8 0.0000 4 105 540 2700 180 m\351moire\001
4 1 0 50 -1 16 8 0.0000 4 135 555 2700 345 physique\001
4 1 0 50 -1 16 8 0.0000 4 135 645 450 1980 espace du\001
4 2 0 50 -1 16 6 0.0000 4 75 135 -45 2385 P0\001
4 2 0 50 -1 16 6 0.0000 4 75 135 -45 2565 P1\001
4 2 0 50 -1 16 6 0.0000 4 75 135 -45 2745 P2\001
4 2 0 50 -1 16 6 0.0000 4 75 135 -45 2925 P3\001
4 2 0 50 -1 16 6 0.0000 4 75 135 -45 3105 P4\001
4 2 0 50 -1 16 6 0.0000 4 75 135 -45 3285 P5\001
4 1 0 50 -1 16 8 0.0000 4 135 780 450 2145 processus B\001
4 1 0 50 -1 16 8 0.0000 4 105 375 1350 2175 pages\001
4 1 0 50 -1 16 8 0.0000 4 105 225 1350 2070 des\001
4 1 0 50 -1 16 8 0.0000 4 105 300 1350 1935 table\001
4 1 0 50 -1 16 8 0.0000 4 135 645 450 360 espace du\001
4 2 0 50 -1 16 6 0.0000 4 75 135 -45 765 P0\001
4 2 0 50 -1 16 6 0.0000 4 75 135 -45 945 P1\001
4 2 0 50 -1 16 6 0.0000 4 75 135 -45 1125 P2\001
4 2 0 50 -1 16 6 0.0000 4 75 135 -45 1305 P3\001
4 2 0 50 -1 16 6 0.0000 4 75 135 -45 1485 P4\001
4 2 0 50 -1 16 6 0.0000 4 75 135 -45 1665 P5\001
4 1 0 50 -1 16 8 0.0000 4 135 780 450 525 processus A\001
4 1 0 50 -1 16 8 0.0000 4 105 375 4320 1305 fichier\001
4 1 0 50 -1 16 6 0.0000 4 105 690 4320 1980 partie projet\351e\001
