#FIG 3.2  Produced by xfig version 3.2.7a
Landscape
Center
Metric
A4
100.00
Single
-2
1200 2
2 2 0 1 0 31 51 -1 37 0.000 0 0 -1 0 0 5
	 4005 1035 5175 1035 5175 2430 4005 2430 4005 1035
2 2 0 1 0 31 51 -1 37 0.000 0 0 -1 0 0 5
	 5355 1395 6525 1395 6525 3060 5355 3060 5355 1395
2 2 0 1 0 31 51 -1 37 0.000 0 0 -1 0 0 5
	 1440 180 3510 180 3510 3420 1440 3420 1440 180
2 2 0 1 0 0 52 -1 20 0.000 0 0 -1 0 0 5
	 1485 225 3555 225 3555 3465 1485 3465 1485 225
2 2 0 1 0 0 52 -1 20 0.000 0 0 7 0 0 5
	 4050 1080 5220 1080 5220 2475 4050 2475 4050 1080
2 2 0 1 0 0 52 -1 20 0.000 0 0 7 0 0 5
	 5400 1440 6570 1440 6570 3105 5400 3105 5400 1440
3 0 0 1 0 7 50 -1 -1 0.000 0 1 0 7
	1 1 1.00 60.00 120.00
	 5940 1575 5850 1665 6030 1845 5850 2025 6030 2205 5940 2295
	 5940 2475
	 0.000 1.000 1.000 1.000 1.000 1.000 0.000
3 0 0 1 0 7 50 -1 -1 0.000 0 1 0 7
	1 1 1.00 60.00 120.00
	 6390 1755 6300 1845 6480 2025 6300 2205 6480 2385 6390 2475
	 6390 2655
	 0.000 1.000 1.000 1.000 1.000 1.000 0.000
3 0 0 1 0 7 50 -1 -1 0.000 0 1 0 7
	1 1 1.00 60.00 120.00
	 4680 1125 4590 1215 4770 1395 4590 1575 4770 1755 4680 1845
	 4680 2025
	 0.000 1.000 1.000 1.000 1.000 1.000 0.000
3 0 1 2 12 7 50 -1 -1 6.000 0 1 0 4
	1 1 1.00 90.00 120.00
	 5940 2880 5940 3060 5940 3285 2880 2835
	 0.000 1.000 1.000 0.000
3 0 1 2 12 7 50 -1 -1 6.000 0 1 0 5
	1 1 1.00 90.00 120.00
	 6390 2880 6390 3150 6390 3330 5940 3510 2880 3015
	 0.000 1.000 1.000 1.000 0.000
3 0 1 2 12 7 50 -1 -1 6.000 0 1 0 4
	1 1 1.00 90.00 120.00
	 4680 2295 4680 2610 4680 2880 2880 2655
	 0.000 1.000 1.000 0.000
3 0 1 2 4 7 50 -1 -1 6.000 0 1 0 5
	1 1 1.00 90.00 120.00
	 3420 1395 4500 675 6390 585 6390 1035 6390 1620
	 0.000 1.000 1.000 1.000 0.000
3 0 1 2 4 7 50 -1 -1 6.000 0 1 0 5
	1 1 1.00 90.00 120.00
	 3420 1035 4590 225 5940 540 5940 945 5940 1485
	 0.000 1.000 1.000 1.000 0.000
3 0 1 2 4 7 50 -1 -1 6.000 0 1 0 5
	1 1 1.00 90.00 120.00
	 3420 810 4005 360 4680 360 4680 720 4680 1035
	 0.000 1.000 1.000 1.000 0.000
4 1 4 50 -1 17 10 0.0000 4 150 1485 4590 315 passage d'argument\001
4 0 1 50 -1 20 10 0.0000 4 150 435 1530 360 main ()\001
4 0 1 50 -1 20 10 0.0000 4 150 45 1530 555 {\001
4 0 1 50 -1 20 10 0.0000 4 150 1845 1800 855 pthread_create (&t1, ... f1 ...)\001
4 0 1 50 -1 20 10 0.0000 4 150 1845 1800 1050 pthread_create (&t2, ... f2 ...)\001
4 0 1 50 -1 20 10 0.0000 4 150 1845 1800 1440 pthread_create (&t3, ... f2 ...)\001
4 0 1 50 -1 20 10 0.0000 4 150 450 4050 1215 f1 (arg)\001
4 0 1 50 -1 20 10 0.0000 4 150 45 4050 1410 {\001
4 0 1 50 -1 20 10 0.0000 4 150 1035 4230 2205 pthread_exit (...)\001
4 0 1 50 -1 20 10 0.0000 4 150 45 4050 2340 }\001
4 0 1 50 -1 20 10 0.0000 4 150 450 5400 1575 f2 (arg)\001
4 0 1 50 -1 20 10 0.0000 4 150 45 5400 1770 {\001
4 0 1 50 -1 20 10 0.0000 4 150 1035 5580 2835 pthread_exit (...)\001
4 0 1 50 -1 20 10 0.0000 4 150 1230 1800 2700 pthread_join (t1, ...)\001
4 0 1 50 -1 20 10 0.0000 4 150 1230 1800 2895 pthread_join (t2, ...)\001
4 0 1 50 -1 20 10 0.0000 4 150 1230 1800 3090 pthread_join (t3, ...)\001
4 0 1 50 -1 20 10 0.0000 4 150 45 1530 3285 }\001
4 0 1 50 -1 20 10 0.0000 4 150 45 5400 2970 }\001
4 2 12 50 -1 17 10 0.0000 4 120 1155 5310 2970 retour de valeur\001
